(kicad_symbol_lib (version 20211014) (generator kicad_symbol_editor)
  (symbol "1503_07" (pin_names (offset 1.016) hide) (in_bom yes) (on_board yes)
    (property "Reference" "X" (id 0) (at -2.54 4.064 0)
      (effects (font (size 1.27 1.27)) (justify left bottom))
    )
    (property "Value" "1503_07" (id 1) (at -2.54 -8.89 0)
      (effects (font (size 1.27 1.27)) (justify left bottom))
    )
    (property "Footprint" "" (id 2) (at 0 0 0)
      (effects (font (size 1.27 1.27)) hide)
    )
    (property "Datasheet" "" (id 3) (at 0 0 0)
      (effects (font (size 1.27 1.27)) (justify left bottom) hide)
    )
    (property "ki_locked" "" (id 4) (at 0 0 0)
      (effects (font (size 1.27 1.27)))
    )
    (property "ki_fp_filters" "1503_07 1503_07_FREZ" (id 5) (at 0 0 0)
      (effects (font (size 1.27 1.27)) hide)
    )
    (symbol "1503_07_0_0"
      (polyline
        (pts
          (xy -2.54 -5.08)
          (xy 0.508 -5.08)
        )
        (stroke (width 0.1524) (type default) (color 0 0 0 0))
        (fill (type none))
      )
      (polyline
        (pts
          (xy -2.54 -2.54)
          (xy 1.016 -2.54)
        )
        (stroke (width 0.1524) (type default) (color 0 0 0 0))
        (fill (type none))
      )
      (polyline
        (pts
          (xy 0 2.54)
          (xy 1.524 1.016)
        )
        (stroke (width 0.1524) (type default) (color 0 0 0 0))
        (fill (type none))
      )
      (polyline
        (pts
          (xy 0.508 -5.08)
          (xy 4.064 -1.524)
        )
        (stroke (width 0.1524) (type default) (color 0 0 0 0))
        (fill (type none))
      )
      (polyline
        (pts
          (xy 1.016 -2.54)
          (xy 2.54 -1.016)
        )
        (stroke (width 0.1524) (type default) (color 0 0 0 0))
        (fill (type none))
      )
      (polyline
        (pts
          (xy 1.524 1.016)
          (xy 2.032 1.524)
        )
        (stroke (width 0.1524) (type default) (color 0 0 0 0))
        (fill (type none))
      )
      (polyline
        (pts
          (xy 2.54 -1.016)
          (xy 3.048 -1.524)
        )
        (stroke (width 0.1524) (type default) (color 0 0 0 0))
        (fill (type none))
      )
      (polyline
        (pts
          (xy 4.064 -1.524)
          (xy 4.572 -2.032)
        )
        (stroke (width 0.1524) (type default) (color 0 0 0 0))
        (fill (type none))
      )
      (rectangle (start 5.1816 -2.667) (end 6.5786 2.667)
        (stroke (width 0) (type default) (color 0 0 0 0))
        (fill (type outline))
      )
      (pin passive line (at -5.08 -5.08 0) (length 2.54)
        (name "1" (effects (font (size 1.016 1.016))))
        (number "1" (effects (font (size 1.016 1.016))))
      )
      (pin passive line (at -5.08 2.54 0) (length 2.54)
        (name "2_1" (effects (font (size 1.016 1.016))))
        (number "2" (effects (font (size 1.016 1.016))))
      )
      (pin passive line (at -5.08 -2.54 0) (length 2.54)
        (name "3" (effects (font (size 1.016 1.016))))
        (number "3" (effects (font (size 1.016 1.016))))
      )
      (pin passive line (at -2.54 2.54 0) (length 2.54)
        (name "2_2" (effects (font (size 1.016 1.016))))
        (number "4" (effects (font (size 1.016 1.016))))
      )
    )
  )
  (symbol "AudioJack2_Ground" (in_bom yes) (on_board yes)
    (property "Reference" "J" (id 0) (at 0 8.89 0)
      (effects (font (size 1.27 1.27)))
    )
    (property "Value" "AudioJack2_Ground" (id 1) (at 0 6.35 0)
      (effects (font (size 1.27 1.27)))
    )
    (property "Footprint" "" (id 2) (at 0 0 0)
      (effects (font (size 1.27 1.27)) hide)
    )
    (property "Datasheet" "~" (id 3) (at 0 0 0)
      (effects (font (size 1.27 1.27)) hide)
    )
    (property "ki_keywords" "audio jack receptacle mono phone headphone TS connector" (id 4) (at 0 0 0)
      (effects (font (size 1.27 1.27)) hide)
    )
    (property "ki_description" "Audio Jack, 2 Poles (Mono / TS), Grounded Sleeve" (id 5) (at 0 0 0)
      (effects (font (size 1.27 1.27)) hide)
    )
    (property "ki_fp_filters" "Jack*" (id 6) (at 0 0 0)
      (effects (font (size 1.27 1.27)) hide)
    )
    (symbol "AudioJack2_Ground_0_1"
      (rectangle (start -2.54 -2.54) (end -3.81 0)
        (stroke (width 0.254) (type default) (color 0 0 0 0))
        (fill (type outline))
      )
      (polyline
        (pts
          (xy 0 0)
          (xy 0.635 -0.635)
          (xy 1.27 0)
          (xy 2.54 0)
        )
        (stroke (width 0.254) (type default) (color 0 0 0 0))
        (fill (type none))
      )
      (polyline
        (pts
          (xy 2.54 2.54)
          (xy -0.635 2.54)
          (xy -0.635 0)
          (xy -1.27 -0.635)
          (xy -1.905 0)
        )
        (stroke (width 0.254) (type default) (color 0 0 0 0))
        (fill (type none))
      )
      (rectangle (start 2.54 3.81) (end -2.54 -2.54)
        (stroke (width 0.254) (type default) (color 0 0 0 0))
        (fill (type background))
      )
    )
    (symbol "AudioJack2_Ground_1_1"
      (pin passive line (at 0 -5.08 90) (length 2.54)
        (name "~" (effects (font (size 1.27 1.27))))
        (number "G" (effects (font (size 1.27 1.27))))
      )
      (pin passive line (at 5.08 2.54 180) (length 2.54)
        (name "~" (effects (font (size 1.27 1.27))))
        (number "S" (effects (font (size 1.27 1.27))))
      )
      (pin passive line (at 5.08 0 180) (length 2.54)
        (name "~" (effects (font (size 1.27 1.27))))
        (number "T" (effects (font (size 1.27 1.27))))
      )
    )
  )
  (symbol "Conn_01x01_MountingPin" (pin_names (offset 1.016) hide) (in_bom yes) (on_board yes)
    (property "Reference" "J" (id 0) (at 0 2.54 0)
      (effects (font (size 1.27 1.27)))
    )
    (property "Value" "Conn_01x01_MountingPin" (id 1) (at 1.27 -2.54 0)
      (effects (font (size 1.27 1.27)) (justify left))
    )
    (property "Footprint" "" (id 2) (at 0 0 0)
      (effects (font (size 1.27 1.27)) hide)
    )
    (property "Datasheet" "~" (id 3) (at 0 0 0)
      (effects (font (size 1.27 1.27)) hide)
    )
    (property "ki_keywords" "connector" (id 4) (at 0 0 0)
      (effects (font (size 1.27 1.27)) hide)
    )
    (property "ki_description" "Generic connectable mounting pin connector, single row, 01x01, script generated (kicad-library-utils/schlib/autogen/connector/)" (id 5) (at 0 0 0)
      (effects (font (size 1.27 1.27)) hide)
    )
    (property "ki_fp_filters" "Connector*:*_1x??-1MP*" (id 6) (at 0 0 0)
      (effects (font (size 1.27 1.27)) hide)
    )
    (symbol "Conn_01x01_MountingPin_1_1"
      (rectangle (start -1.27 0.127) (end 0 -0.127)
        (stroke (width 0.1524) (type default) (color 0 0 0 0))
        (fill (type none))
      )
      (rectangle (start -1.27 1.27) (end 1.27 -1.27)
        (stroke (width 0.254) (type default) (color 0 0 0 0))
        (fill (type background))
      )
      (pin passive line (at -5.08 0 0) (length 3.81)
        (name "Pin_1" (effects (font (size 1.27 1.27))))
        (number "1" (effects (font (size 1.27 1.27))))
      )
    )
  )
  (symbol "D" (pin_numbers hide) (pin_names (offset 1.016) hide) (in_bom yes) (on_board yes)
    (property "Reference" "D" (id 0) (at 0 2.54 0)
      (effects (font (size 1.27 1.27)))
    )
    (property "Value" "D" (id 1) (at 0 -2.54 0)
      (effects (font (size 1.27 1.27)))
    )
    (property "Footprint" "" (id 2) (at 0 0 0)
      (effects (font (size 1.27 1.27)) hide)
    )
    (property "Datasheet" "~" (id 3) (at 0 0 0)
      (effects (font (size 1.27 1.27)) hide)
    )
    (property "ki_keywords" "diode" (id 4) (at 0 0 0)
      (effects (font (size 1.27 1.27)) hide)
    )
    (property "ki_description" "Diode" (id 5) (at 0 0 0)
      (effects (font (size 1.27 1.27)) hide)
    )
    (property "ki_fp_filters" "TO-???* *_Diode_* *SingleDiode* D_*" (id 6) (at 0 0 0)
      (effects (font (size 1.27 1.27)) hide)
    )
    (symbol "D_0_1"
      (polyline
        (pts
          (xy -1.27 1.27)
          (xy -1.27 -1.27)
        )
        (stroke (width 0.254) (type default) (color 0 0 0 0))
        (fill (type none))
      )
      (polyline
        (pts
          (xy 1.27 0)
          (xy -1.27 0)
        )
        (stroke (width 0) (type default) (color 0 0 0 0))
        (fill (type none))
      )
      (polyline
        (pts
          (xy 1.27 1.27)
          (xy 1.27 -1.27)
          (xy -1.27 0)
          (xy 1.27 1.27)
        )
        (stroke (width 0.254) (type default) (color 0 0 0 0))
        (fill (type none))
      )
    )
    (symbol "D_1_1"
      (pin passive line (at -3.81 0 0) (length 2.54)
        (name "K" (effects (font (size 1.27 1.27))))
        (number "1" (effects (font (size 1.27 1.27))))
      )
      (pin passive line (at 3.81 0 180) (length 2.54)
        (name "A" (effects (font (size 1.27 1.27))))
        (number "2" (effects (font (size 1.27 1.27))))
      )
    )
  )
  (symbol "MJ-4PP-9" (pin_names (offset 1.016)) (in_bom yes) (on_board yes)
    (property "Reference" "J" (id 0) (at 0 3.81 0)
      (effects (font (size 1.27 1.27)))
    )
    (property "Value" "MJ-4PP-9" (id 1) (at 0 -3.81 0)
      (effects (font (size 1.27 1.27)))
    )
    (property "Footprint" "" (id 2) (at 6.985 4.445 0)
      (effects (font (size 1.27 1.27)) hide)
    )
    (property "Datasheet" "~" (id 3) (at 6.985 4.445 0)
      (effects (font (size 1.27 1.27)) hide)
    )
    (property "ki_keywords" "audio jack receptable stereo headphones TRRS connector" (id 4) (at 0 0 0)
      (effects (font (size 1.27 1.27)) hide)
    )
    (property "ki_description" "4-pin (audio) jack receptable (stereo + 4th pin/TRRS connector), compatible with PJ320A" (id 5) (at 0 0 0)
      (effects (font (size 1.27 1.27)) hide)
    )
    (symbol "MJ-4PP-9_0_1"
      (rectangle (start -1.905 -1.905) (end -3.175 1.27)
        (stroke (width 0) (type default) (color 0 0 0 0))
        (fill (type none))
      )
      (polyline
        (pts
          (xy -2.54 1.27)
          (xy -2.54 1.905)
          (xy 3.175 1.905)
        )
        (stroke (width 0) (type default) (color 0 0 0 0))
        (fill (type none))
      )
      (polyline
        (pts
          (xy -1.27 -1.905)
          (xy -0.635 -1.27)
          (xy 0 -1.905)
          (xy 3.175 -1.905)
        )
        (stroke (width 0) (type default) (color 0 0 0 0))
        (fill (type none))
      )
      (polyline
        (pts
          (xy 0 -0.635)
          (xy 0.635 0)
          (xy 1.27 -0.635)
          (xy 3.175 -0.635)
        )
        (stroke (width 0) (type default) (color 0 0 0 0))
        (fill (type none))
      )
      (polyline
        (pts
          (xy 1.27 0.635)
          (xy 1.905 1.27)
          (xy 2.54 0.635)
          (xy 3.175 0.635)
        )
        (stroke (width 0) (type default) (color 0 0 0 0))
        (fill (type none))
      )
      (rectangle (start 3.175 2.54) (end -3.81 -2.54)
        (stroke (width 0.3048) (type default) (color 0 0 0 0))
        (fill (type none))
      )
    )
    (symbol "MJ-4PP-9_1_1"
      (pin input line (at 5.08 1.905 180) (length 2.0066)
        (name "~" (effects (font (size 0.508 0.508))))
        (number "A" (effects (font (size 0.7112 0.7112))))
      )
      (pin input line (at 5.08 -1.905 180) (length 2.0066)
        (name "~" (effects (font (size 0.508 0.508))))
        (number "B" (effects (font (size 0.7112 0.7112))))
      )
      (pin input line (at 5.08 -0.635 180) (length 2.0066)
        (name "~" (effects (font (size 0.508 0.508))))
        (number "C" (effects (font (size 0.7112 0.7112))))
      )
      (pin input line (at 5.08 0.635 180) (length 2.0066)
        (name "~" (effects (font (size 0.508 0.508))))
        (number "D" (effects (font (size 0.7112 0.7112))))
      )
    )
  )
  (symbol "ProMicro" (pin_names (offset 1.016)) (in_bom yes) (on_board yes)
    (property "Reference" "U" (id 0) (at 0 19.05 0)
      (effects (font (size 1.524 1.524)))
    )
    (property "Value" "ProMicro" (id 1) (at 0 -19.05 0)
      (effects (font (size 1.524 1.524)))
    )
    (property "Footprint" "" (id 2) (at 2.54 -26.67 0)
      (effects (font (size 1.524 1.524)))
    )
    (property "Datasheet" "" (id 3) (at 2.54 -26.67 0)
      (effects (font (size 1.524 1.524)))
    )
    (symbol "ProMicro_0_1"
      (rectangle (start -12.7 16.51) (end 12.7 -16.51)
        (stroke (width 0) (type default) (color 0 0 0 0))
        (fill (type none))
      )
    )
    (symbol "ProMicro_1_1"
      (pin bidirectional line (at -17.78 13.97 0) (length 5.08)
        (name "TX0/D3" (effects (font (size 1.27 1.27))))
        (number "1" (effects (font (size 1.27 1.27))))
      )
      (pin bidirectional line (at -17.78 -8.89 0) (length 5.08)
        (name "7/E6" (effects (font (size 1.27 1.27))))
        (number "10" (effects (font (size 1.27 1.27))))
      )
      (pin bidirectional line (at -17.78 -11.43 0) (length 5.08)
        (name "8/B4" (effects (font (size 1.27 1.27))))
        (number "11" (effects (font (size 1.27 1.27))))
      )
      (pin bidirectional line (at -17.78 -13.97 0) (length 5.08)
        (name "9/B5" (effects (font (size 1.27 1.27))))
        (number "12" (effects (font (size 1.27 1.27))))
      )
      (pin bidirectional line (at 17.78 -13.97 180) (length 5.08)
        (name "B6/10" (effects (font (size 1.27 1.27))))
        (number "13" (effects (font (size 1.27 1.27))))
      )
      (pin bidirectional line (at 17.78 -11.43 180) (length 5.08)
        (name "B2/16" (effects (font (size 1.27 1.27))))
        (number "14" (effects (font (size 1.27 1.27))))
      )
      (pin bidirectional line (at 17.78 -8.89 180) (length 5.08)
        (name "B3/14" (effects (font (size 1.27 1.27))))
        (number "15" (effects (font (size 1.27 1.27))))
      )
      (pin bidirectional line (at 17.78 -6.35 180) (length 5.08)
        (name "B1/15" (effects (font (size 1.27 1.27))))
        (number "16" (effects (font (size 1.27 1.27))))
      )
      (pin bidirectional line (at 17.78 -3.81 180) (length 5.08)
        (name "F7/A0" (effects (font (size 1.27 1.27))))
        (number "17" (effects (font (size 1.27 1.27))))
      )
      (pin bidirectional line (at 17.78 -1.27 180) (length 5.08)
        (name "F6/A1" (effects (font (size 1.27 1.27))))
        (number "18" (effects (font (size 1.27 1.27))))
      )
      (pin bidirectional line (at 17.78 1.27 180) (length 5.08)
        (name "F5/A2" (effects (font (size 1.27 1.27))))
        (number "19" (effects (font (size 1.27 1.27))))
      )
      (pin bidirectional line (at -17.78 11.43 0) (length 5.08)
        (name "RX1/D2" (effects (font (size 1.27 1.27))))
        (number "2" (effects (font (size 1.27 1.27))))
      )
      (pin bidirectional line (at 17.78 3.81 180) (length 5.08)
        (name "F4/A3" (effects (font (size 1.27 1.27))))
        (number "20" (effects (font (size 1.27 1.27))))
      )
      (pin power_in line (at 17.78 6.35 180) (length 5.08)
        (name "VCC" (effects (font (size 1.27 1.27))))
        (number "21" (effects (font (size 1.27 1.27))))
      )
      (pin input line (at 17.78 8.89 180) (length 5.08)
        (name "RST" (effects (font (size 1.27 1.27))))
        (number "22" (effects (font (size 1.27 1.27))))
      )
      (pin power_in line (at 17.78 11.43 180) (length 5.08)
        (name "GND" (effects (font (size 1.27 1.27))))
        (number "23" (effects (font (size 1.27 1.27))))
      )
      (pin power_out line (at 17.78 13.97 180) (length 5.08)
        (name "RAW" (effects (font (size 1.27 1.27))))
        (number "24" (effects (font (size 1.27 1.27))))
      )
      (pin power_in line (at -17.78 8.89 0) (length 5.08)
        (name "GND" (effects (font (size 1.27 1.27))))
        (number "3" (effects (font (size 1.27 1.27))))
      )
      (pin power_in line (at -17.78 6.35 0) (length 5.08)
        (name "GND" (effects (font (size 1.27 1.27))))
        (number "4" (effects (font (size 1.27 1.27))))
      )
      (pin bidirectional line (at -17.78 3.81 0) (length 5.08)
        (name "2/D1/SDA" (effects (font (size 1.27 1.27))))
        (number "5" (effects (font (size 1.27 1.27))))
      )
      (pin bidirectional line (at -17.78 1.27 0) (length 5.08)
        (name "3/D0/SCL" (effects (font (size 1.27 1.27))))
        (number "6" (effects (font (size 1.27 1.27))))
      )
      (pin bidirectional line (at -17.78 -1.27 0) (length 5.08)
        (name "4/D4" (effects (font (size 1.27 1.27))))
        (number "7" (effects (font (size 1.27 1.27))))
      )
      (pin bidirectional line (at -17.78 -3.81 0) (length 5.08)
        (name "5/C6" (effects (font (size 1.27 1.27))))
        (number "8" (effects (font (size 1.27 1.27))))
      )
      (pin bidirectional line (at -17.78 -6.35 0) (length 5.08)
        (name "6/D7" (effects (font (size 1.27 1.27))))
        (number "9" (effects (font (size 1.27 1.27))))
      )
    )
  )
  (symbol "RotaryEncoder_Switch" (pin_names (offset 0.254) hide) (in_bom yes) (on_board yes)
    (property "Reference" "SW" (id 0) (at 0 6.604 0)
      (effects (font (size 1.27 1.27)))
    )
    (property "Value" "RotaryEncoder_Switch" (id 1) (at 0 -6.604 0)
      (effects (font (size 1.27 1.27)))
    )
    (property "Footprint" "" (id 2) (at -3.81 4.064 0)
      (effects (font (size 1.27 1.27)) hide)
    )
    (property "Datasheet" "~" (id 3) (at 0 6.604 0)
      (effects (font (size 1.27 1.27)) hide)
    )
    (property "ki_keywords" "rotary switch encoder switch push button" (id 4) (at 0 0 0)
      (effects (font (size 1.27 1.27)) hide)
    )
    (property "ki_description" "Rotary encoder, dual channel, incremental quadrate outputs, with switch" (id 5) (at 0 0 0)
      (effects (font (size 1.27 1.27)) hide)
    )
    (property "ki_fp_filters" "RotaryEncoder*Switch*" (id 6) (at 0 0 0)
      (effects (font (size 1.27 1.27)) hide)
    )
    (symbol "RotaryEncoder_Switch_0_1"
      (rectangle (start -5.08 5.08) (end 5.08 -5.08)
        (stroke (width 0.254) (type default) (color 0 0 0 0))
        (fill (type background))
      )
      (circle (center -3.81 0) (radius 0.254)
        (stroke (width 0) (type default) (color 0 0 0 0))
        (fill (type outline))
      )
      (arc (start -0.381 -2.794) (mid 2.3622 -0.0635) (end -0.381 2.667)
        (stroke (width 0.254) (type default) (color 0 0 0 0))
        (fill (type none))
      )
      (circle (center -0.381 0) (radius 1.905)
        (stroke (width 0.254) (type default) (color 0 0 0 0))
        (fill (type none))
      )
      (polyline
        (pts
          (xy -0.635 -1.778)
          (xy -0.635 1.778)
        )
        (stroke (width 0.254) (type default) (color 0 0 0 0))
        (fill (type none))
      )
      (polyline
        (pts
          (xy -0.381 -1.778)
          (xy -0.381 1.778)
        )
        (stroke (width 0.254) (type default) (color 0 0 0 0))
        (fill (type none))
      )
      (polyline
        (pts
          (xy -0.127 1.778)
          (xy -0.127 -1.778)
        )
        (stroke (width 0.254) (type default) (color 0 0 0 0))
        (fill (type none))
      )
      (polyline
        (pts
          (xy 3.81 0)
          (xy 3.429 0)
        )
        (stroke (width 0.254) (type default) (color 0 0 0 0))
        (fill (type none))
      )
      (polyline
        (pts
          (xy 3.81 1.016)
          (xy 3.81 -1.016)
        )
        (stroke (width 0.254) (type default) (color 0 0 0 0))
        (fill (type none))
      )
      (polyline
        (pts
          (xy -5.08 -2.54)
          (xy -3.81 -2.54)
          (xy -3.81 -2.032)
        )
        (stroke (width 0) (type default) (color 0 0 0 0))
        (fill (type none))
      )
      (polyline
        (pts
          (xy -5.08 2.54)
          (xy -3.81 2.54)
          (xy -3.81 2.032)
        )
        (stroke (width 0) (type default) (color 0 0 0 0))
        (fill (type none))
      )
      (polyline
        (pts
          (xy 0.254 -3.048)
          (xy -0.508 -2.794)
          (xy 0.127 -2.413)
        )
        (stroke (width 0.254) (type default) (color 0 0 0 0))
        (fill (type none))
      )
      (polyline
        (pts
          (xy 0.254 2.921)
          (xy -0.508 2.667)
          (xy 0.127 2.286)
        )
        (stroke (width 0.254) (type default) (color 0 0 0 0))
        (fill (type none))
      )
      (polyline
        (pts
          (xy 5.08 -2.54)
          (xy 4.318 -2.54)
          (xy 4.318 -1.016)
        )
        (stroke (width 0.254) (type default) (color 0 0 0 0))
        (fill (type none))
      )
      (polyline
        (pts
          (xy 5.08 2.54)
          (xy 4.318 2.54)
          (xy 4.318 1.016)
        )
        (stroke (width 0.254) (type default) (color 0 0 0 0))
        (fill (type none))
      )
      (polyline
        (pts
          (xy -5.08 0)
          (xy -3.81 0)
          (xy -3.81 -1.016)
          (xy -3.302 -2.032)
        )
        (stroke (width 0) (type default) (color 0 0 0 0))
        (fill (type none))
      )
      (polyline
        (pts
          (xy -4.318 0)
          (xy -3.81 0)
          (xy -3.81 1.016)
          (xy -3.302 2.032)
        )
        (stroke (width 0) (type default) (color 0 0 0 0))
        (fill (type none))
      )
      (circle (center 4.318 -1.016) (radius 0.127)
        (stroke (width 0.254) (type default) (color 0 0 0 0))
        (fill (type none))
      )
      (circle (center 4.318 1.016) (radius 0.127)
        (stroke (width 0.254) (type default) (color 0 0 0 0))
        (fill (type none))
      )
    )
    (symbol "RotaryEncoder_Switch_1_1"
      (pin passive line (at -7.62 2.54 0) (length 2.54)
        (name "A" (effects (font (size 1.27 1.27))))
        (number "A" (effects (font (size 1.27 1.27))))
      )
      (pin passive line (at -7.62 -2.54 0) (length 2.54)
        (name "B" (effects (font (size 1.27 1.27))))
        (number "B" (effects (font (size 1.27 1.27))))
      )
      (pin passive line (at -7.62 0 0) (length 2.54)
        (name "C" (effects (font (size 1.27 1.27))))
        (number "C" (effects (font (size 1.27 1.27))))
      )
      (pin passive line (at 7.62 2.54 180) (length 2.54)
        (name "S1" (effects (font (size 1.27 1.27))))
        (number "S1" (effects (font (size 1.27 1.27))))
      )
      (pin passive line (at 7.62 -2.54 180) (length 2.54)
        (name "S2" (effects (font (size 1.27 1.27))))
        (number "S2" (effects (font (size 1.27 1.27))))
      )
      (pin no_connect line (at 1.27 10.16 0) (length 2.54)
        (name "MP" (effects (font (size 1.27 1.27))))
        (number "_0" (effects (font (size 1.27 1.27))))
      )
    )
  )
  (symbol "SK6812MINI-E" (pin_names (offset 1.016)) (in_bom yes) (on_board yes)
    (property "Reference" "LED" (id 0) (at 2.54 6.35 0)
      (effects (font (size 0.7366 0.7366)) hide)
    )
    (property "Value" "SK6812MINI-E" (id 1) (at 5.08 -6.35 0)
      (effects (font (size 0.7366 0.7366)) hide)
    )
    (property "Footprint" "" (id 2) (at 3.81 -6.35 0)
      (effects (font (size 1.27 1.27)) hide)
    )
    (property "Datasheet" "" (id 3) (at 3.81 -6.35 0)
      (effects (font (size 1.27 1.27)) hide)
    )
    (symbol "SK6812MINI-E_0_1"
      (rectangle (start -5.08 5.08) (end 5.08 -5.08)
        (stroke (width 0.254) (type default) (color 0 0 0 0))
        (fill (type background))
      )
    )
    (symbol "SK6812MINI-E_1_1"
      (pin power_in line (at 0 7.62 270) (length 2.54)
        (name "VDD" (effects (font (size 0.9906 0.9906))))
        (number "1" (effects (font (size 1.27 1.27))))
      )
      (pin output line (at 7.62 0 180) (length 2.54)
        (name "DOUT" (effects (font (size 0.9906 0.9906))))
        (number "2" (effects (font (size 1.27 1.27))))
      )
      (pin power_in line (at 0 -7.62 90) (length 2.54)
        (name "VSS" (effects (font (size 0.9906 0.9906))))
        (number "3" (effects (font (size 1.27 1.27))))
      )
      (pin input line (at -7.62 0 0) (length 2.54)
        (name "DIN" (effects (font (size 0.9906 0.9906))))
        (number "4" (effects (font (size 1.27 1.27))))
      )
    )
  )
  (symbol "SW_PUSH" (pin_numbers hide) (pin_names (offset 1.016) hide) (in_bom yes) (on_board yes)
    (property "Reference" "SW" (id 0) (at 3.81 2.794 0)
      (effects (font (size 1.27 1.27)))
    )
    (property "Value" "SW_PUSH" (id 1) (at 0 -2.032 0)
      (effects (font (size 1.27 1.27)))
    )
    (property "Footprint" "" (id 2) (at 0 0 0)
      (effects (font (size 1.27 1.27)))
    )
    (property "Datasheet" "" (id 3) (at 0 0 0)
      (effects (font (size 1.27 1.27)))
    )
    (symbol "SW_PUSH_0_1"
      (rectangle (start -4.318 1.27) (end 4.318 1.524)
        (stroke (width 0) (type default) (color 0 0 0 0))
        (fill (type none))
      )
      (polyline
        (pts
          (xy -1.016 1.524)
          (xy -0.762 2.286)
          (xy 0.762 2.286)
          (xy 1.016 1.524)
        )
        (stroke (width 0) (type default) (color 0 0 0 0))
        (fill (type none))
      )
      (pin passive inverted (at -7.62 0 0) (length 5.08)
        (name "1" (effects (font (size 1.27 1.27))))
        (number "1" (effects (font (size 1.27 1.27))))
      )
      (pin passive inverted (at 7.62 0 180) (length 5.08)
        (name "2" (effects (font (size 1.27 1.27))))
        (number "2" (effects (font (size 1.27 1.27))))
      )
    )
  )
  (symbol "WS2812B" (pin_names (offset 0.254)) (in_bom yes) (on_board yes)
    (property "Reference" "D" (id 0) (at 5.08 5.715 0)
      (effects (font (size 1.27 1.27)) (justify right bottom))
    )
    (property "Value" "WS2812B" (id 1) (at 1.27 -5.715 0)
      (effects (font (size 1.27 1.27)) (justify left top))
    )
    (property "Footprint" "LED_SMD:LED_WS2812B_PLCC4_5.0x5.0mm_P3.2mm" (id 2) (at 1.27 -7.62 0)
      (effects (font (size 1.27 1.27)) (justify left top) hide)
    )
    (property "Datasheet" "https://cdn-shop.adafruit.com/datasheets/WS2812B.pdf" (id 3) (at 2.54 -9.525 0)
      (effects (font (size 1.27 1.27)) (justify left top) hide)
    )
    (property "ki_keywords" "RGB LED NeoPixel addressable" (id 4) (at 0 0 0)
      (effects (font (size 1.27 1.27)) hide)
    )
    (property "ki_description" "RGB LED with integrated controller" (id 5) (at 0 0 0)
      (effects (font (size 1.27 1.27)) hide)
    )
    (property "ki_fp_filters" "LED*WS2812*PLCC*5.0x5.0mm*P3.2mm*" (id 6) (at 0 0 0)
      (effects (font (size 1.27 1.27)) hide)
    )
    (symbol "WS2812B_0_0"
      (text "RGB" (at 2.286 -4.191 0)
        (effects (font (size 0.762 0.762)))
      )
    )
    (symbol "WS2812B_0_1"
      (polyline
        (pts
          (xy 1.27 -3.556)
          (xy 1.778 -3.556)
        )
        (stroke (width 0) (type default) (color 0 0 0 0))
        (fill (type none))
      )
      (polyline
        (pts
          (xy 1.27 -2.54)
          (xy 1.778 -2.54)
        )
        (stroke (width 0) (type default) (color 0 0 0 0))
        (fill (type none))
      )
      (polyline
        (pts
          (xy 4.699 -3.556)
          (xy 2.667 -3.556)
        )
        (stroke (width 0) (type default) (color 0 0 0 0))
        (fill (type none))
      )
      (polyline
        (pts
          (xy 2.286 -2.54)
          (xy 1.27 -3.556)
          (xy 1.27 -3.048)
        )
        (stroke (width 0) (type default) (color 0 0 0 0))
        (fill (type none))
      )
      (polyline
        (pts
          (xy 2.286 -1.524)
          (xy 1.27 -2.54)
          (xy 1.27 -2.032)
        )
        (stroke (width 0) (type default) (color 0 0 0 0))
        (fill (type none))
      )
      (polyline
        (pts
          (xy 3.683 -1.016)
          (xy 3.683 -3.556)
          (xy 3.683 -4.064)
        )
        (stroke (width 0) (type default) (color 0 0 0 0))
        (fill (type none))
      )
      (polyline
        (pts
          (xy 4.699 -1.524)
          (xy 2.667 -1.524)
          (xy 3.683 -3.556)
          (xy 4.699 -1.524)
        )
        (stroke (width 0) (type default) (color 0 0 0 0))
        (fill (type none))
      )
      (rectangle (start 5.08 5.08) (end -5.08 -5.08)
        (stroke (width 0.254) (type default) (color 0 0 0 0))
        (fill (type background))
      )
    )
    (symbol "WS2812B_1_1"
      (pin power_in line (at 0 7.62 270) (length 2.54)
        (name "VDD" (effects (font (size 1.27 1.27))))
        (number "1" (effects (font (size 1.27 1.27))))
      )
      (pin output line (at 7.62 0 180) (length 2.54)
        (name "DOUT" (effects (font (size 1.27 1.27))))
        (number "2" (effects (font (size 1.27 1.27))))
      )
      (pin power_in line (at 0 -7.62 90) (length 2.54)
        (name "VSS" (effects (font (size 1.27 1.27))))
        (number "3" (effects (font (size 1.27 1.27))))
      )
      (pin input line (at -7.62 0 0) (length 2.54)
        (name "DIN" (effects (font (size 1.27 1.27))))
        (number "4" (effects (font (size 1.27 1.27))))
      )
    )
  )
  (symbol "blind_symbol" (in_bom yes) (on_board yes)
    (property "Reference" "U" (id 0) (at 0 0 0)
      (effects (font (size 1.27 1.27)))
    )
    (property "Value" "blind_symbol" (id 1) (at 0 2.54 0)
      (effects (font (size 1.27 1.27)))
    )
    (property "Footprint" "" (id 2) (at 0 0 0)
      (effects (font (size 1.27 1.27)) hide)
    )
    (property "Datasheet" "" (id 3) (at 0 0 0)
      (effects (font (size 1.27 1.27)) hide)
    )
    (symbol "blind_symbol_0_1"
      (rectangle (start -3.81 1.27) (end 3.81 -1.27)
        (stroke (width 0) (type default) (color 0 0 0 0))
        (fill (type none))
      )
    )
  )
)
