(footprint "CherryMX_Hotswap" (version 20211014) (generator pcbnew)
  (layer "F.Cu")
  (tedit 6232416F)
  (attr through_hole)
  (fp_text reference "REF**" (at 7.1 8.2) (layer "F.SilkS") hide
    (effects (font (size 1 1) (thickness 0.15)))
    (tstamp 08e037be-6637-4229-99cc-6bd88b45d3f8)
  )
  (fp_text value "KEY_SWITCH" (at -4.8 8.3) (layer "F.Fab") hide
    (effects (font (size 1 1) (thickness 0.15)))
    (tstamp 756a65f2-fd03-4409-bfb4-3f104516d67d)
  )
  (fp_line (start 7 7) (end 7 6) (layer "Dwgs.User") (width 0.15) (tstamp 0325dab8-933f-4944-9d50-c0f22e806359))
  (fp_line (start -9.525 9.525) (end -9.525 -9.525) (layer "Dwgs.User") (width 0.15) (tstamp 1bc12a92-bf7a-46dd-8708-fe1dbaefcd84))
  (fp_line (start -9.525 -9.525) (end 9.525 -9.525) (layer "Dwgs.User") (width 0.15) (tstamp 4be2267c-6af2-49a8-96db-8cf56c851435))
  (fp_line (start -7 -7) (end -6 -7) (layer "Dwgs.User") (width 0.15) (tstamp 5634a3ef-c37d-4a2e-91b5-738bdf47bf02))
  (fp_line (start 9.525 -9.525) (end 9.525 9.525) (layer "Dwgs.User") (width 0.15) (tstamp 6dbf81b6-6072-40fd-850e-60646aa4d896))
  (fp_line (start 7 -7) (end 6 -7) (layer "Dwgs.User") (width 0.15) (tstamp 93322b25-0ecd-4a65-a6dc-93365e27c275))
  (fp_line (start 7 -7) (end 7 -6) (layer "Dwgs.User") (width 0.15) (tstamp a096d8f6-34e4-48f6-8a59-0ec50d3f70f3))
  (fp_line (start -7 -6) (end -7 -7) (layer "Dwgs.User") (width 0.15) (tstamp aa3d97a9-46ad-4573-83c3-dcb98c604aaa))
  (fp_line (start 6 7) (end 7 7) (layer "Dwgs.User") (width 0.15) (tstamp b032b6da-e21c-49dc-9e17-4f1300e8bc14))
  (fp_line (start -7 6) (end -7 7) (layer "Dwgs.User") (width 0.15) (tstamp bab16e65-d88a-41e9-8c0b-36bc9c4add8c))
  (fp_line (start 9.525 9.525) (end -9.525 9.525) (layer "Dwgs.User") (width 0.15) (tstamp d6916f9c-109c-4eba-a655-e8ef3e2b89bb))
  (fp_line (start -7 7) (end -6 7) (layer "Dwgs.User") (width 0.15) (tstamp debbc774-c904-4b30-a075-454df93df58d))
  (pad "" np_thru_hole circle (at 5.08 0) (size 1.9 1.9) (drill 1.9) (layers *.Cu *.Mask) (tstamp 199cc95d-7f30-4ecb-b3f3-973f3f1ae9e0))
  (pad "" np_thru_hole circle (at 0 0 90) (size 4.1 4.1) (drill 4.1) (layers *.Cu *.Mask) (tstamp 72769b68-9a91-46c9-b44f-702777b28ad2))
  (pad "" np_thru_hole circle (at 2.54 -5.08) (size 3 3) (drill 3) (layers *.Cu *.Mask) (tstamp b9fbf188-e3a2-40e8-9875-3be4ebab17fe))
  (pad "" np_thru_hole circle (at -3.81 -2.54) (size 3 3) (drill 3) (layers *.Cu *.Mask) (tstamp c26c6321-3379-4533-a25d-c0297c64bf99))
  (pad "" np_thru_hole circle (at -5.08 0) (size 1.9 1.9) (drill 1.9) (layers *.Cu *.Mask) (tstamp fb1a9d6e-f9cc-4be0-bc17-7e1dd84a0bce))
  (pad "1" smd rect (at -7.085 -2.54 180) (size 2.55 2.5) (layers "B.Cu" "B.Paste" "B.Mask") (tstamp 8989cb46-0498-4685-a2f4-1c697531c84d))
  (pad "2" smd rect (at 5.842 -5.08 180) (size 2.55 2.5) (layers "B.Cu" "B.Paste" "B.Mask") (tstamp 4b65ac70-1bef-4ba2-bc37-610db37eb5f4))
  (model "${KIPRJMOD}/lib/3dmodels/Kailh-CherryMX-Socket.step"
    (offset (xyz -1.2 7.65 -3.7))
    (scale (xyz 1 1 1))
    (rotate (xyz 0 0 180))
  )
)
