(footprint "ProMicro_v3" (version 20211014) (generator pcbnew)
  (layer "F.Cu")
  (tedit 62115052)
  (attr through_hole)
  (fp_text reference "U1" (at 0 -5 270) (layer "F.SilkS") hide
    (effects (font (size 1 1) (thickness 0.15)))
    (tstamp 59cbf7b7-7133-4135-a8c4-91a5a6960f42)
  )
  (fp_text value "ProMicro_r" (at -0.1 0.05 90) (layer "F.Fab") hide
    (effects (font (size 1 1) (thickness 0.15)))
    (tstamp c7fbf600-0651-40b7-bfbe-2650c0f33c0e)
  )
  (fp_text user "E6/7" (at 4.705 8.25 unlocked) (layer "F.SilkS")
    (effects (font (size 0.75 0.67) (thickness 0.125)))
    (tstamp 084e9fb2-5ba0-48d5-b1ab-5417a64b470b)
  )
  (fp_text user "B4/8" (at 4.705 10.8 unlocked) (layer "F.SilkS")
    (effects (font (size 0.75 0.67) (thickness 0.125)))
    (tstamp 1479c7d2-8483-4f0b-ad51-2380f8c716f8)
  )
  (fp_text user "10/B6" (at -4.395 13.45 unlocked) (layer "F.SilkS")
    (effects (font (size 0.75 0.67) (thickness 0.125)))
    (tstamp 15a0d6b8-0aab-462a-9c39-89d082620537)
  )
  (fp_text user "GND" (at 4.955 -9.35 unlocked) (layer "F.SilkS")
    (effects (font (size 0.75 0.67) (thickness 0.125)))
    (tstamp 1b2a589c-bc6b-40b6-b18c-e0ee5914415a)
  )
  (fp_text user "VCC" (at -4.995 -6.95 unlocked) (layer "F.SilkS")
    (effects (font (size 0.75 0.67) (thickness 0.125)))
    (tstamp 2ac44aa6-3c41-4467-a749-f79a8c15bb90)
  )
  (fp_text user "SDA/D1/2" (at 3.455 -4.4 unlocked) (layer "F.SilkS")
    (effects (font (size 0.75 0.67) (thickness 0.125)))
    (tstamp 37f61a38-c3ac-4951-b80b-d185b84282cb)
  )
  (fp_text user "A0/F7" (at -4.395 3.3 unlocked) (layer "F.SilkS")
    (effects (font (size 0.75 0.67) (thickness 0.125)))
    (tstamp 54f61fa1-140a-4b26-8519-103e484f559e)
  )
  (fp_text user "C6/5" (at 4.705 3.15 unlocked) (layer "F.SilkS")
    (effects (font (size 0.75 0.67) (thickness 0.125)))
    (tstamp 56c0e9e0-71b9-4fcd-8d69-a78cf6c545f6)
  )
  (fp_text user "GND" (at 4.955 -6.9 unlocked) (layer "F.SilkS")
    (effects (font (size 0.75 0.67) (thickness 0.125)))
    (tstamp 5e3dd334-29d8-4f04-8e68-1137268e8df2)
  )
  (fp_text user "SCL/D0/3" (at 3.455 -1.9 unlocked) (layer "F.SilkS")
    (effects (font (size 0.75 0.67) (thickness 0.125)))
    (tstamp 6a14b137-13a1-4055-828c-e5b614856272)
  )
  (fp_text user "GND" (at -4.995 -11.95 unlocked) (layer "F.SilkS")
    (effects (font (size 0.75 0.67) (thickness 0.125)))
    (tstamp 819484a5-3861-4b10-80b0-109fd67162df)
  )
  (fp_text user "D7/6" (at 4.705 5.7 unlocked) (layer "F.SilkS")
    (effects (font (size 0.75 0.67) (thickness 0.125)))
    (tstamp 8438d985-8362-43fb-954d-20e733131c55)
  )
  (fp_text user "D2/RX1" (at 4.155 -11.9 unlocked) (layer "F.SilkS")
    (effects (font (size 0.75 0.67) (thickness 0.125)))
    (tstamp 91e18267-1933-4d17-b21c-8a30ef9ec57f)
  )
  (fp_text user "RAW" (at -4.995 -14.5 unlocked) (layer "F.SilkS")
    (effects (font (size 0.75 0.67) (thickness 0.125)))
    (tstamp a6a4455c-503d-4ed4-be96-5afe9f89f9d1)
  )
  (fp_text user "A3/F4" (at -4.395 -4.25 unlocked) (layer "F.SilkS")
    (effects (font (size 0.75 0.67) (thickness 0.125)))
    (tstamp b8a3621a-f285-48d2-8d7b-0bd6348769b6)
  )
  (fp_text user "B5/9" (at 4.705 13.3 unlocked) (layer "F.SilkS")
    (effects (font (size 0.75 0.67) (thickness 0.125)))
    (tstamp bf2e4a98-2921-4402-93bf-d2dfc43ad392)
  )
  (fp_text user "A1/F6" (at -4.395 0.75 unlocked) (layer "F.SilkS")
    (effects (font (size 0.75 0.67) (thickness 0.125)))
    (tstamp c9824dc2-6296-4fd7-8470-d0e332759f2c)
  )
  (fp_text user "D3/TX0" (at 4.155 -14.45 unlocked) (layer "F.SilkS")
    (effects (font (size 0.75 0.67) (thickness 0.125)))
    (tstamp d59021af-0981-4457-86b8-5c7220216090)
  )
  (fp_text user "15/B1" (at -4.395 5.85 unlocked) (layer "F.SilkS")
    (effects (font (size 0.75 0.67) (thickness 0.125)))
    (tstamp d91e0bd8-412a-48d3-a169-55f951a40980)
  )
  (fp_text user "RST" (at -4.995 -9.4 unlocked) (layer "F.SilkS")
    (effects (font (size 0.75 0.67) (thickness 0.125)))
    (tstamp d9ec6b89-ab11-4139-9ceb-97832ef80a06)
  )
  (fp_text user "16/B2" (at -4.395 10.95 unlocked) (layer "F.SilkS")
    (effects (font (size 0.75 0.67) (thickness 0.125)))
    (tstamp db444ff7-042c-403c-a3a2-ad97c306e15d)
  )
  (fp_text user "14/B3" (at -4.395 8.4 unlocked) (layer "F.SilkS")
    (effects (font (size 0.75 0.67) (thickness 0.125)))
    (tstamp e557eebc-0c78-481c-b632-ec5807ff6fa1)
  )
  (fp_text user "D4/4" (at 4.705 0.6 unlocked) (layer "F.SilkS")
    (effects (font (size 0.75 0.67) (thickness 0.125)))
    (tstamp ed43c7bd-07ea-4c91-81b0-5cdab0c86349)
  )
  (fp_text user "A2/F5" (at -4.395 -1.75 unlocked) (layer "F.SilkS")
    (effects (font (size 0.75 0.67) (thickness 0.125)))
    (tstamp ee83fb34-ea68-4850-9902-e6eabe8137fd)
  )
  (fp_line (start -8.75 -15.6) (end -8.75 -14.75) (layer "F.SilkS") (width 0.15) (tstamp 3f69028d-5b0c-4380-95a9-3c49c776cfa2))
  (fp_line (start 8.75 14.6) (end 7.89 14.6) (layer "F.SilkS") (width 0.15) (tstamp 458a22a1-a754-4703-8493-585626574893))
  (fp_line (start 8.75 13.75) (end 8.75 14.6) (layer "F.SilkS") (width 0.15) (tstamp 5245ada4-a107-4da7-8dcc-ee9ec601a218))
  (fp_line (start 8.75 -15.6) (end 7.95 -15.6) (layer "F.SilkS") (width 0.15) (tstamp 615b7e41-2522-46a8-b6cc-ce53d3264a48))
  (fp_line (start -8.75 -15.6) (end -7.9 -15.6) (layer "F.SilkS") (width 0.15) (tstamp 93c8b975-6589-4817-b45a-d26eb20e895c))
  (fp_line (start -8.75 13.7) (end -8.75 14.6) (layer "F.SilkS") (width 0.15) (tstamp b583055d-8eb8-43b1-9934-e477a55d888f))
  (fp_line (start -8.75 14.6) (end -7.9 14.6) (layer "F.SilkS") (width 0.15) (tstamp f204b61f-5e27-4774-8e47-4778ef26a7cd))
  (fp_line (start 8.75 -15.6) (end 8.75 -14.75) (layer "F.SilkS") (width 0.15) (tstamp feabab87-0eef-4702-9b07-8fa984ba5116))
  (fp_line (start 3.75 -19.6) (end 3.75 -18.3) (layer "F.Fab") (width 0.15) (tstamp 008b01e2-6080-4308-b0d9-cf074b28d452))
  (fp_line (start -8.9 14.75) (end -8.9 -18.3) (layer "F.Fab") (width 0.15) (tstamp 16de0aac-c37a-4524-843f-9cb0c3b8c564))
  (fp_line (start -3.75 -19.6) (end 3.75 -19.6) (layer "F.Fab") (width 0.15) (tstamp 8d3040d0-6537-493b-9c2b-49909170d92f))
  (fp_line (start -3.75 -19.6) (end -3.75 -18.299039) (layer "F.Fab") (width 0.15) (tstamp 90f2a9f0-6018-4ec4-8027-afadec57341e))
  (fp_line (start -3.75 -18.3) (end 3.75 -18.3) (layer "F.Fab") (width 0.15) (tstamp b30d84ec-04b2-411a-9759-b67636d03876))
  (fp_line (start 8.9 -18.3) (end 8.9 14.75) (layer "F.Fab") (width 0.15) (tstamp c81306f1-e263-43ba-ae73-f39bfb798861))
  (fp_line (start -8.9 -18.3) (end -3.75 -18.3) (layer "F.Fab") (width 0.15) (tstamp dd5435e5-438e-4215-a523-52fd36361525))
  (fp_line (start 8.9 14.75) (end -8.9 14.75) (layer "F.Fab") (width 0.15) (tstamp de2dd575-4cac-4804-82f4-2312f850f454))
  (fp_line (start 3.76 -18.3) (end 8.9 -18.3) (layer "F.Fab") (width 0.15) (tstamp f09cc434-61a1-4512-9d19-61f76f161fd5))
  (pad "1" thru_hole circle (at 7.6114 -14.478) (size 1.524 1.524) (drill 0.8128) (layers *.Cu *.Mask) (tstamp d163f834-a0d6-40ce-92d1-07b359fe1357))
  (pad "2" thru_hole circle (at 7.6114 -11.938) (size 1.524 1.524) (drill 0.8128) (layers *.Cu *.Mask) (tstamp 61aacfbc-4fe8-4f76-8874-74e1da10bdc3))
  (pad "3" thru_hole circle (at 7.6114 -9.398) (size 1.524 1.524) (drill 0.8128) (layers *.Cu *.Mask) (tstamp bac81b73-b084-4fac-adfa-19c36cf54ba8))
  (pad "4" thru_hole circle (at 7.6114 -6.858) (size 1.524 1.524) (drill 0.8128) (layers *.Cu *.Mask) (tstamp 33df8e05-20cc-4908-9dd8-002783523515))
  (pad "5" thru_hole circle (at 7.6114 -4.318) (size 1.524 1.524) (drill 0.8128) (layers *.Cu *.Mask) (tstamp 08d57eeb-a456-43e6-a392-4143f031b792))
  (pad "6" thru_hole circle (at 7.6114 -1.778) (size 1.524 1.524) (drill 0.8128) (layers *.Cu *.Mask) (tstamp 483bb3f7-8e58-4669-a930-75732ce89b24))
  (pad "7" thru_hole circle (at 7.6114 0.762) (size 1.524 1.524) (drill 0.8128) (layers *.Cu *.Mask) (tstamp 04f0d7f0-73f6-4600-b3c6-ce23d1b96128))
  (pad "8" thru_hole circle (at 7.6114 3.302) (size 1.524 1.524) (drill 0.8128) (layers *.Cu *.Mask) (tstamp c063401a-3044-4c2a-9c12-020fce0a5362))
  (pad "9" thru_hole circle (at 7.6114 5.842) (size 1.524 1.524) (drill 0.8128) (layers *.Cu *.Mask) (tstamp db4580b5-4163-4cb2-88d0-faf4f9c51234))
  (pad "10" thru_hole circle (at 7.6114 8.382) (size 1.524 1.524) (drill 0.8128) (layers *.Cu *.Mask) (tstamp 6ddb99c0-fc19-4d0c-b6ca-f1e7c3630db9))
  (pad "11" thru_hole circle (at 7.6114 10.922) (size 1.524 1.524) (drill 0.8128) (layers *.Cu *.Mask) (tstamp 53390f67-54bf-460d-94fe-5d0dd7b9ecf9))
  (pad "12" thru_hole circle (at 7.6114 13.462) (size 1.524 1.524) (drill 0.8128) (layers *.Cu *.Mask) (tstamp a0d6f3a4-c4a7-47ca-b198-89dcb733987a))
  (pad "13" thru_hole circle (at -7.6086 13.462) (size 1.524 1.524) (drill 0.8128) (layers *.Cu *.Mask) (tstamp fc2134f8-568b-4a34-af72-7694deda0ab5))
  (pad "14" thru_hole circle (at -7.6086 10.922) (size 1.524 1.524) (drill 0.8128) (layers *.Cu *.Mask) (tstamp d4449bf1-507a-4131-9792-e11d4700cf15))
  (pad "15" thru_hole circle (at -7.6086 8.382) (size 1.524 1.524) (drill 0.8128) (layers *.Cu *.Mask) (tstamp 8ec54e6d-fa50-42bf-8bb3-4823650ee095))
  (pad "16" thru_hole circle (at -7.6086 5.842) (size 1.524 1.524) (drill 0.8128) (layers *.Cu *.Mask) (tstamp 6e145155-8819-4395-ad3d-5daadfc18f97))
  (pad "17" thru_hole circle (at -7.6086 3.302) (size 1.524 1.524) (drill 0.8128) (layers *.Cu *.Mask) (tstamp 6edb08d2-3b4e-4ee8-b5b8-08f322e822dc))
  (pad "18" thru_hole circle (at -7.6086 0.762) (size 1.524 1.524) (drill 0.8128) (layers *.Cu *.Mask) (tstamp a426695b-ee9f-458c-89e4-4f788e8424a9))
  (pad "19" thru_hole circle (at -7.6086 -1.778) (size 1.524 1.524) (drill 0.8128) (layers *.Cu *.Mask) (tstamp fddcfb4f-842f-4d5a-85b0-5d62b0b305bf))
  (pad "20" thru_hole circle (at -7.6086 -4.318) (size 1.524 1.524) (drill 0.8128) (layers *.Cu *.Mask) (tstamp c9a5b751-4d3c-48a3-921d-cc879e49a0c5))
  (pad "21" thru_hole circle (at -7.6086 -6.858) (size 1.524 1.524) (drill 0.8128) (layers *.Cu *.Mask) (tstamp 307455e7-7eea-4229-ad45-c70021af7c4f))
  (pad "22" thru_hole circle (at -7.6086 -9.398) (size 1.524 1.524) (drill 0.8128) (layers *.Cu *.Mask) (tstamp f3fda3ff-702c-44fe-a8a2-c0cbcc249164))
  (pad "23" thru_hole circle (at -7.6086 -11.938) (size 1.524 1.524) (drill 0.8128) (layers *.Cu *.Mask) (tstamp 080c44e7-6afa-47ab-8967-b56fd8f175d2))
  (pad "24" thru_hole circle (at -7.6086 -14.478) (size 1.524 1.524) (drill 0.8128) (layers *.Cu *.Mask) (tstamp 831b2ff9-70a3-4e13-8641-6bb097ff35d9))
  (model "/Users/foostan/src/github.com/foostan/kbd/kicad-packages3D/kbd.3dshapes/ProMicro.step"
    (offset (xyz 0 1.8 2.5))
    (scale (xyz 1 1 1))
    (rotate (xyz 0 180 0))
  )
)
