(footprint "RotaryEncoder_Alps_EC11E_Switch_Vertical" (version 20211014) (generator pcbnew)
  (layer "F.Cu")
  (tedit 61FD9D46)
  (descr "Alps rotary encoder, EC12E... with switch, vertical shaft, http://www.alps.com/prod/info/E/HTML/Encoder/Incremental/EC11/EC11E15204A3.html")
  (tags "rotary encoder")
  (attr through_hole)
  (fp_text reference "REF**" (at 0.20828 -8.18388) (layer "F.SilkS") hide
    (effects (font (size 1 1) (thickness 0.15)))
    (tstamp 8afc1aeb-75c2-4f14-9452-eea0149d2b4f)
  )
  (fp_text value "RotaryEncoder_EC11E_SW_Vertical" (at 0.08128 8.06196) (layer "F.Fab") hide
    (effects (font (size 1 1) (thickness 0.15)))
    (tstamp ce8ac9b1-6409-452a-9b41-788d0b9a8d68)
  )
  (fp_line (start 0.007 -0.50444) (end 0.007 0.49556) (layer "F.SilkS") (width 0.12) (tstamp 25c27ffc-3b54-41c3-be86-a55fa3fd8195))
  (fp_line (start -0.493 -0.00444) (end 0.507 -0.00444) (layer "F.SilkS") (width 0.12) (tstamp 3b628fb8-b444-4458-9c3c-ac34cfe9ab55))
  (fp_line (start 6.107 3.49556) (end 6.107 5.89556) (layer "F.SilkS") (width 0.12) (tstamp 4944f310-965c-46b7-abb1-bdacecbf69a6))
  (fp_line (start 2.007 -5.90444) (end 6.107 -5.90444) (layer "F.SilkS") (width 0.12) (tstamp 609e4d6e-4f3e-4b99-930c-0d95a0117ce1))
  (fp_line (start -6.093 -5.90444) (end -6.093 5.89556) (layer "F.SilkS") (width 0.12) (tstamp 746254af-8fbc-4873-8d60-32241ba3b8df))
  (fp_line (start -1.993 5.89556) (end -6.093 5.89556) (layer "F.SilkS") (width 0.12) (tstamp ab368317-cb8d-44c6-ae42-29b0f543f46f))
  (fp_line (start 6.107 5.89556) (end 2.007 5.89556) (layer "F.SilkS") (width 0.12) (tstamp ac53e438-b230-45ae-bced-4c65a6142f2a))
  (fp_line (start 6.107 -1.30444) (end 6.107 1.29556) (layer "F.SilkS") (width 0.12) (tstamp e6efbdf3-51c8-4cf4-86ee-f081c3da0fc3))
  (fp_line (start 6.107 -5.90444) (end 6.107 -3.50444) (layer "F.SilkS") (width 0.12) (tstamp ef292e68-66e2-4151-8185-a43f5c65735d))
  (fp_line (start -1.993 -5.90444) (end -6.093 -5.90444) (layer "F.SilkS") (width 0.12) (tstamp f3540d71-617b-4bb4-ab14-e7c695aa5797))
  (fp_circle (center 0.007 -0.00444) (end 3.007 -0.00444) (layer "F.SilkS") (width 0.12) (fill none) (tstamp 2c48dff5-b3c3-4ac1-b2b6-b8b660f4e129))
  (fp_line (start -8.993 -7.10444) (end -8.993 7.09556) (layer "F.CrtYd") (width 0.05) (tstamp 28cfccfe-0bd2-4d4f-8826-50909ee62263))
  (fp_line (start 8.507 7.09556) (end -8.993 7.09556) (layer "F.CrtYd") (width 0.05) (tstamp 3ac34c7d-51c3-4402-9b54-790cb5d98701))
  (fp_line (start 8.507 7.09556) (end 8.507 -7.10444) (layer "F.CrtYd") (width 0.05) (tstamp 522dff87-8907-4e19-9947-3268606b3128))
  (fp_line (start -8.993 -7.10444) (end 8.507 -7.10444) (layer "F.CrtYd") (width 0.05) (tstamp fdf1b507-3a63-4212-9552-eb952e90d692))
  (fp_line (start 6.007 -5.80444) (end 6.007 5.79556) (layer "F.Fab") (width 0.12) (tstamp 22d880bc-c4f2-435d-a705-47e907b2d8c4))
  (fp_line (start -2.993 -0.00444) (end 3.007 -0.00444) (layer "F.Fab") (width 0.12) (tstamp 30e26165-a55d-4ef5-b0b1-ededb1c1ef59))
  (fp_line (start -4.993 -5.80444) (end 6.007 -5.80444) (layer "F.Fab") (width 0.12) (tstamp 3de4bebd-8884-4cc3-a332-e5f98d05fe35))
  (fp_line (start 0.007 -3.00444) (end 0.007 2.99556) (layer "F.Fab") (width 0.12) (tstamp 62781ddf-59f6-4934-8bfe-e0620b42832a))
  (fp_line (start -5.993 -4.70444) (end -4.993 -5.80444) (layer "F.Fab") (width 0.12) (tstamp 6ace8859-37d8-4cac-8f4c-2875c6eddfbe))
  (fp_line (start -5.993 5.79556) (end -5.993 -4.70444) (layer "F.Fab") (width 0.12) (tstamp b454409a-845f-4680-9bf1-603026d83c45))
  (fp_line (start 6.007 5.79556) (end -5.993 5.79556) (layer "F.Fab") (width 0.12) (tstamp f1dd52e2-6d74-4588-b051-531a5b71342b))
  (fp_circle (center 0.007 -0.00444) (end 3.007 -0.00444) (layer "F.Fab") (width 0.12) (fill none) (tstamp b6354f0e-05a3-431f-8609-adc74c5a5903))
  (pad "A" thru_hole custom (at -7.493 -2.50444) (size 2 2) (drill 1) (layers *.Cu *.Mask)
    (options (clearance outline) (anchor circle))
    (primitives
    ) (tstamp bd40963b-0e4c-421a-ade0-205b4ed4d57e))
  (pad "B" thru_hole circle (at -7.493 2.49556) (size 2 2) (drill 1) (layers *.Cu *.Mask) (tstamp e05318a9-5e8c-4e53-aba1-9a630dd2885b))
  (pad "C" thru_hole circle (at -7.493 -0.00444) (size 2 2) (drill 1) (layers *.Cu *.Mask) (tstamp d667fad9-5a47-43a9-a114-21d66cf44828))
  (pad "MP" thru_hole rect (at 0.007 5.59556) (size 3.2 2) (drill oval 2.8 1.5) (layers *.Cu *.Mask) (tstamp 3c37c519-b9ff-40de-951d-541f012efbe7))
  (pad "MP" thru_hole rect (at 0.007 -5.60444) (size 3.2 2) (drill oval 2.8 1.5) (layers *.Cu *.Mask) (tstamp a4bcdb5f-a748-41d3-be48-c3edabbe61c1))
  (pad "S1" thru_hole circle (at 7.007 2.49556) (size 2 2) (drill 1) (layers *.Cu *.Mask) (tstamp a8dc8588-47f1-44ae-aaa8-c5dc23a950cc))
  (pad "S2" thru_hole circle (at 7.007 -2.50444) (size 2 2) (drill 1) (layers *.Cu *.Mask) (tstamp 1999d70c-0dd9-454b-866c-5372a97d7663))
  (model "${KISYS3DMOD}/Rotary_Encoder.3dshapes/RotaryEncoder_Alps_EC11E-Switch_Vertical_H20mm.wrl"
    (offset (xyz 0 0 0))
    (scale (xyz 1 1 1))
    (rotate (xyz 0 0 0))
  )
)
