(footprint "SK6812MINI-E" (version 20211014) (generator pcbnew)
  (layer "F.Cu")
  (tedit 62323F81)
  (attr through_hole)
  (fp_text reference "REF**" (at 0 3.81) (layer "F.SilkS") hide
    (effects (font (size 1 1) (thickness 0.15)))
    (tstamp 2b9f2be9-94ac-4f24-8583-0445b8833796)
  )
  (fp_text value "SK6812MINI-E" (at 0 -2.54) (layer "F.Fab") hide
    (effects (font (size 1 1) (thickness 0.15)))
    (tstamp b18b7e30-aeea-4c28-aa60-796f96ce13e3)
  )
  (fp_line (start -3.9 -0.25) (end -3.9 -1.85) (layer "B.SilkS") (width 0.12) (tstamp 54a3c92d-a091-405f-b445-603c0f2e1fb3))
  (fp_line (start -3.9 -1.85) (end 3.9 -1.85) (layer "B.SilkS") (width 0.12) (tstamp 6615c595-191c-4fe5-b7e9-4a579d552656))
  (fp_line (start 3.9 1.85) (end -3.9 1.85) (layer "B.SilkS") (width 0.12) (tstamp 668b82fe-b542-4bd0-b2a5-5dae0ac43510))
  (fp_line (start -2.94 -1.03) (end -1.6 -1.03) (layer "Dwgs.User") (width 0.12) (tstamp 2cd4313e-ce8a-4a88-bbb4-b316831d36bc))
  (fp_line (start -2.94 0.37) (end -1.6 0.37) (layer "Dwgs.User") (width 0.12) (tstamp 41c89c8e-0f97-4797-9a39-8582a63268a5))
  (fp_line (start 1.6 -1.03) (end 2.94 -1.03) (layer "Dwgs.User") (width 0.12) (tstamp 448ff7ec-6a16-4e42-9b2d-0967b95502fd))
  (fp_line (start -1.6 1.4) (end 1.6 1.4) (layer "Dwgs.User") (width 0.12) (tstamp 52396e61-2497-45f0-b170-f0aa7c52a4c3))
  (fp_line (start 2.94 -0.35) (end 1.6 -0.35) (layer "Dwgs.User") (width 0.12) (tstamp 56185341-c702-4c71-bbfd-6bbdf2cbaaa3))
  (fp_line (start 2.94 1.05) (end 1.6 1.05) (layer "Dwgs.User") (width 0.12) (tstamp 66a7c890-ac40-4f36-85c1-502128bd5c2d))
  (fp_line (start -1.6 -0.7) (end -0.8 -1.4) (layer "Dwgs.User") (width 0.12) (tstamp 73772adc-97ef-4c2a-96e3-7debb2e7ad38))
  (fp_line (start -1.6 1.05) (end -2.94 1.05) (layer "Dwgs.User") (width 0.12) (tstamp 79df5ddf-0c98-40c8-8d1f-cdc63a7174ea))
  (fp_line (start 1.6 1.4) (end 1.6 -1.4) (layer "Dwgs.User") (width 0.12) (tstamp aff58ab2-469a-4812-b652-5c3f4c39b206))
  (fp_line (start 2.94 -1.03) (end 2.94 -0.35) (layer "Dwgs.User") (width 0.12) (tstamp b63bd667-f2d9-44ef-91c8-0a8a156c214f))
  (fp_line (start -1.6 -1.4) (end 1.6 -1.4) (layer "Dwgs.User") (width 0.12) (tstamp b7dac85f-7f4a-467c-97a9-e1aea0272b0c))
  (fp_line (start 1.6 0.37) (end 2.94 0.37) (layer "Dwgs.User") (width 0.12) (tstamp be1ea428-d74e-4125-8596-38f82be06487))
  (fp_line (start -1.6 1.4) (end -1.6 -1.4) (layer "Dwgs.User") (width 0.12) (tstamp c399aef9-3678-4747-9295-3eabdcc57d0c))
  (fp_line (start 2.94 0.37) (end 2.94 1.05) (layer "Dwgs.User") (width 0.12) (tstamp d0b2ef87-fb55-49de-8104-c83c37eb45ce))
  (fp_line (start -2.94 -0.35) (end -2.94 -1.03) (layer "Dwgs.User") (width 0.12) (tstamp f2a6aecd-4122-4a99-9e8d-04b4d349c70a))
  (fp_line (start -2.94 1.05) (end -2.94 0.37) (layer "Dwgs.User") (width 0.12) (tstamp f851dc23-a7aa-409a-9752-b640c2926160))
  (fp_line (start -1.6 -0.35) (end -2.94 -0.35) (layer "Dwgs.User") (width 0.12) (tstamp f8ffdbf9-0674-41ec-af69-a8c71090d156))
  (fp_line (start 1.8 1.55) (end -1.8 1.55) (layer "Edge.Cuts") (width 0.05) (tstamp 245c66f7-0773-48d6-80be-4de688085350))
  (fp_line (start -1.8 -1.55) (end 1.8 -1.55) (layer "Edge.Cuts") (width 0.05) (tstamp 4af2240a-5a5d-48d2-a9b4-a18e1ae31a7e))
  (fp_line (start -1.8 1.55) (end -1.8 -1.55) (layer "Edge.Cuts") (width 0.05) (tstamp 677f84bc-8f99-4d53-ae54-328e7b493deb))
  (fp_line (start 1.8 -1.55) (end 1.8 1.55) (layer "Edge.Cuts") (width 0.05) (tstamp 8460a8f9-202d-446c-a727-76b53e0a37f9))
  (pad "1" smd rect (at 2.75 0.7) (size 1.7 1) (layers "B.Cu" "B.Paste" "B.Mask") (tstamp 605bab45-5ca9-464d-98f6-894bbcd6dce1))
  (pad "2" smd rect (at 2.75 -0.7) (size 1.7 1) (layers "B.Cu" "B.Paste" "B.Mask") (tstamp e29212f6-6b71-4119-b733-a1364d3f66fa))
  (pad "3" smd rect (at -2.75 -0.7) (size 1.7 1) (layers "B.Cu" "B.Paste" "B.Mask") (tstamp e03f82b5-d29f-4a54-bd29-7ec329714377))
  (pad "4" smd rect (at -2.75 0.7) (size 1.7 1) (layers "B.Cu" "B.Paste" "B.Mask") (tstamp 2c9a93e9-8b91-4d1b-83ca-ab30c1015fe7))
  (model "${KIPRJMOD}/lib/3dmodels/YS-SK6812MINI-E.step"
    (offset (xyz 0 0 -1.8))
    (scale (xyz 1 1 1))
    (rotate (xyz 0 0 180))
  )
)
