(footprint "terminal-c-logo" (version 20211014) (generator pcbnew)
  (layer "F.Cu")
  (tedit 6233B4A7)
  (fp_text reference "REF**" (at 0 -0.5 unlocked) (layer "F.SilkS") hide
    (effects (font (size 1 1) (thickness 0.15)))
    (tstamp accebe4a-4811-45d8-8b08-88051390a08a)
  )
  (fp_text value "terminal-c-logo" (at 0 1 unlocked) (layer "F.Fab") hide
    (effects (font (size 1 1) (thickness 0.15)))
    (tstamp 2ccf2f47-76bd-43db-891f-05a0a4419612)
  )
  (fp_text user "https://gitlab.com/DLF/terminal-c" (at 0 -1.27 unlocked) (layer "F.SilkS")
    (effects (font (size 1 1) (thickness 0.15)))
    (tstamp 69c52ca7-b898-4fa8-b83f-12c50fbcea1a)
  )
  (fp_text user "${VALUE}" (at 0 1.27 unlocked) (layer "F.SilkS")
    (effects (font (size 1 1) (thickness 0.15)))
    (tstamp a0e8de65-da3b-4ebd-a827-15b001f286d3)
  )
)
